Vit_e213/verilog.log
Host command: verilog
Command arguments:
    -f sim_e213.script
        tb_e213.v
        VIT_ENC.v
        eBMU_213.v
        eACS_213.v
        eACSU_213.v
        eTBDECISION_213.v
        eSYNCERR_213.v
        eCONTROL_213.v
        eVITERBI_213.v
        +libext+.v+.V
        -y /hwapps/xilinx/M.1.5.i/verilog/src/UNI4000X

VERILOG-XL 3.0.s007 log file created Feb 10, 2001  18:21:43
VERILOG-XL 3.0.s007   Feb 10, 2001  18:21:43

Copyright (c) 1995 Cadence Design Systems, Inc.  All Rights Reserved.
Unpublished -- rights reserved under the copyright laws of the United States.

Copyright (c) 1995 UNIX Systems Laboratories, Inc.  Reproduced with Permission.

THIS SOFTWARE AND ON-LINE DOCUMENTATION CONTAIN CONFIDENTIAL INFORMATION
AND TRADE SECRETS OF CADENCE DESIGN SYSTEMS, INC.  USE, DISCLOSURE, OR
REPRODUCTION IS PROHIBITED WITHOUT THE PRIOR EXPRESS WRITTEN PERMISSION OF
CADENCE DESIGN SYSTEMS, INC.
RESTRICTED RIGHTS LEGEND

Use, duplication, or disclosure by the Government is subject to
restrictions as set forth in subparagraph (c)(1)(ii) of the Rights in
Technical Data and Computer Software clause at DFARS 252.227-7013 or
subparagraphs (c)(1) and (2) of Commercial Computer Software -- Restricted
Rights at 48 CFR 52.227-19, as applicable.

                Cadence Design Systems, Inc.
                555 River Oaks Parkway
                San Jose, California  95134

For technical assistance please contact the Cadence Response Center at
1-877-CDS-4911 or send email to support@cadence.com

For more information on Cadence's Verilog-XL product line send email to
talkverilog@cadence.com

For quick reference of Cadence's Verilog-XL product command line options
Please look at the html page <instal_path>/tools/verilog/doc/index.html 
in a web browser

Compiling source file "tb_e213.v"
Compiling included source file "params_e213.inc"
Continuing compilation of source file "tb_e213.v"
Compiling source file "VIT_ENC.v"
Compiling included source file "params_e213.inc"
Continuing compilation of source file "VIT_ENC.v"
Compiling source file "eBMU_213.v"
Compiling included source file "params_e213.inc"
Continuing compilation of source file "eBMU_213.v"
Compiling source file "eACS_213.v"
Compiling included source file "params_e213.inc"
Continuing compilation of source file "eACS_213.v"
Compiling source file "eACSU_213.v"
Compiling included source file "params_e213.inc"
Continuing compilation of source file "eACSU_213.v"
Compiling source file "eTBDECISION_213.v"
Compiling included source file "params_e213.inc"
Continuing compilation of source file "eTBDECISION_213.v"
Compiling source file "eSYNCERR_213.v"
Compiling source file "eCONTROL_213.v"
Compiling included source file "params_e213.inc"
Continuing compilation of source file "eCONTROL_213.v"
Compiling source file "eVITERBI_213.v"
Compiling included source file "params_e213.inc"
Continuing compilation of source file "eVITERBI_213.v"
Highest level modules:
tb_e213

Debussy Release 4.4.h9 (May  5 2000 compile) Verilog-XL Version
Fsdb file verilog.fsdb is created
#####################
#   COND is reset   #
#####################
time=   0, clk=0, reset=1, Ux=0, Vx=00, we=1,te=0, oe=0, wptr=0, tptr=0, CNT=20, min_state=000, PX[trc_ptr]=00000000, tb_reg=000, A_in=02ffffff, P_in=00000000, Dx=z, error=0
#####################
#   COND is reset   #
#####################
time=  20, clk=1, reset=1, Ux=0, Vx=00, we=1,te=0, oe=0, wptr=0, tptr=0, CNT=20, min_state=000, PX[trc_ptr]=00000000, tb_reg=000, A_in=02ffffff, P_in=00000000, Dx=z, error=0
time=  40, clk=0, reset=0, Ux=0, Vx=00, we=1,te=0, oe=0, wptr=0, tptr=0, CNT=20, min_state=000, PX[trc_ptr]=00000000, tb_reg=000, A_in=02ffffff, P_in=00000000, Dx=z, error=0
###############################
# COND is we && write_ptr <`m #
###############################
time=  60, clk=1, reset=0, Ux=0, Vx=00, we=1,te=0, oe=0, wptr=1, tptr=0, CNT=20, min_state=000, PX[trc_ptr]=00000000, tb_reg=000, A_in=0233ffff, P_in=00000000, Dx=z, error=0
time=  80, clk=0, reset=0, Ux=1, Vx=00, we=1,te=0, oe=0, wptr=1, tptr=0, CNT=20, min_state=000, PX[trc_ptr]=00000000, tb_reg=000, A_in=0233ffff, P_in=00000000, Dx=z, error=0
###############################
# COND is we && write_ptr <`m #
###############################
time= 100, clk=1, reset=0, Ux=1, Vx=11, we=1,te=0, oe=0, wptr=2, tptr=0, CNT=20, min_state=000, PX[trc_ptr]=00000000, tb_reg=000, A_in=20333544, P_in=00000000, Dx=z, error=0
time= 120, clk=0, reset=0, Ux=1, Vx=11, we=1,te=0, oe=0, wptr=2, tptr=0, CNT=20, min_state=000, PX[trc_ptr]=00000000, tb_reg=000, A_in=20333544, P_in=00000000, Dx=z, error=0
###############################
# COND is we && write_ptr <`m #
###############################
time= 140, clk=1, reset=0, Ux=1, Vx=10, we=1,te=0, oe=0, wptr=3, tptr=0, CNT=20, min_state=001, PX[trc_ptr]=00000000, tb_reg=000, A_in=33204434, P_in=00000001, Dx=z, error=0
time= 160, clk=0, reset=0, Ux=0, Vx=10, we=1,te=0, oe=0, wptr=3, tptr=0, CNT=20, min_state=001, PX[trc_ptr]=00000000, tb_reg=000, A_in=33204434, P_in=00000001, Dx=z, error=0
###############################
# COND is we && write_ptr <`m #
###############################
time= 180, clk=1, reset=0, Ux=0, Vx=10, we=1,te=0, oe=0, wptr=4, tptr=0, CNT=20, min_state=011, PX[trc_ptr]=00000000, tb_reg=001, A_in=44433302, P_in=00100000, Dx=z, error=0
time= 200, clk=0, reset=0, Ux=1, Vx=10, we=1,te=0, oe=0, wptr=4, tptr=0, CNT=20, min_state=011, PX[trc_ptr]=00000000, tb_reg=001, A_in=44433302, P_in=00100000, Dx=z, error=0
####################################
# COND is we && write_ptr >m <`T-1 #
####################################
time= 220, clk=1, reset=0, Ux=1, Vx=11, we=1,te=0, oe=0, wptr=5, tptr=0, CNT=20, min_state=110, PX[trc_ptr]=00000000, tb_reg=011, A_in=34442033, P_in=10111111, Dx=z, error=0
time= 240, clk=0, reset=0, Ux=1, Vx=11, we=1,te=0, oe=0, wptr=5, tptr=0, CNT=20, min_state=110, PX[trc_ptr]=00000000, tb_reg=011, A_in=34442033, P_in=10111111, Dx=z, error=0
####################################
# COND is we && write_ptr >m <`T-1 #
####################################
time= 260, clk=1, reset=0, Ux=1, Vx=01, we=1,te=0, oe=0, wptr=6, tptr=0, CNT=20, min_state=101, PX[trc_ptr]=00000000, tb_reg=110, A_in=33204434, P_in=11111110, Dx=z, error=0
time= 280, clk=0, reset=0, Ux=0, Vx=01, we=1,te=0, oe=0, wptr=6, tptr=0, CNT=20, min_state=101, PX[trc_ptr]=00000000, tb_reg=110, A_in=33204434, P_in=11111110, Dx=z, error=0
####################################
# COND is we && write_ptr >m <`T-1 #
####################################
time= 300, clk=1, reset=0, Ux=0, Vx=10, we=1,te=0, oe=0, wptr=7, tptr=0, CNT=20, min_state=011, PX[trc_ptr]=00000000, tb_reg=101, A_in=44433302, P_in=00100000, Dx=z, error=0
time= 320, clk=0, reset=0, Ux=0, Vx=10, we=1,te=0, oe=0, wptr=7, tptr=0, CNT=20, min_state=011, PX[trc_ptr]=00000000, tb_reg=101, A_in=44433302, P_in=00100000, Dx=z, error=0
####################################
# COND is we && write_ptr >m <`T-1 #
####################################
time= 340, clk=1, reset=0, Ux=0, Vx=00, we=1,te=0, oe=0, wptr=8, tptr=0, CNT=20, min_state=110, PX[trc_ptr]=00000000, tb_reg=011, A_in=43440233, P_in=01111111, Dx=z, error=0
time= 360, clk=0, reset=0, Ux=1, Vx=00, we=1,te=0, oe=0, wptr=8, tptr=0, CNT=20, min_state=110, PX[trc_ptr]=00000000, tb_reg=011, A_in=43440233, P_in=01111111, Dx=z, error=0
####################################
# COND is we && write_ptr >m <`T-1 #
####################################
time= 380, clk=1, reset=0, Ux=1, Vx=00, we=1,te=0, oe=0, wptr=9, tptr=0, CNT=20, min_state=100, PX[trc_ptr]=00000000, tb_reg=110, A_in=20333444, P_in=11111011, Dx=z, error=0
time= 400, clk=0, reset=0, Ux=0, Vx=00, we=1,te=0, oe=0, wptr=9, tptr=0, CNT=20, min_state=100, PX[trc_ptr]=00000000, tb_reg=110, A_in=20333444, P_in=11111011, Dx=z, error=0
####################################
# COND is we && write_ptr >m <`T-1 #
####################################
time= 420, clk=1, reset=0, Ux=0, Vx=01, we=1,te=0, oe=0, wptr=a, tptr=0, CNT=20, min_state=001, PX[trc_ptr]=00000000, tb_reg=100, A_in=33024443, P_in=00000010, Dx=z, error=0
time= 440, clk=0, reset=0, Ux=1, Vx=01, we=1,te=0, oe=0, wptr=a, tptr=0, CNT=20, min_state=001, PX[trc_ptr]=00000000, tb_reg=100, A_in=33024443, P_in=00000010, Dx=z, error=0
####################################
# COND is we && write_ptr >m <`T-1 #
####################################
time= 460, clk=1, reset=0, Ux=1, Vx=00, we=1,te=0, oe=0, wptr=b, tptr=0, CNT=20, min_state=010, PX[trc_ptr]=00000000, tb_reg=001, A_in=34442033, P_in=01000000, Dx=z, error=0
time= 480, clk=0, reset=0, Ux=0, Vx=00, we=1,te=0, oe=0, wptr=b, tptr=0, CNT=20, min_state=010, PX[trc_ptr]=00000000, tb_reg=001, A_in=34442033, P_in=01000000, Dx=z, error=0
####################################
# COND is we && write_ptr >m <`T-1 #
####################################
time= 500, clk=1, reset=0, Ux=0, Vx=10, we=1,te=0, oe=0, wptr=c, tptr=0, CNT=20, min_state=101, PX[trc_ptr]=00000000, tb_reg=010, A_in=33024443, P_in=11111101, Dx=z, error=0
time= 520, clk=0, reset=0, Ux=0, Vx=10, we=1,te=0, oe=0, wptr=c, tptr=0, CNT=20, min_state=101, PX[trc_ptr]=00000000, tb_reg=010, A_in=33024443, P_in=11111101, Dx=z, error=0
####################################
# COND is we && write_ptr >m <`T-1 #
####################################
time= 540, clk=1, reset=0, Ux=0, Vx=11, we=1,te=0, oe=0, wptr=d, tptr=0, CNT=20, min_state=010, PX[trc_ptr]=00000000, tb_reg=101, A_in=43440233, P_in=10000000, Dx=z, error=0
time= 560, clk=0, reset=0, Ux=0, Vx=11, we=1,te=0, oe=0, wptr=d, tptr=0, CNT=20, min_state=010, PX[trc_ptr]=00000000, tb_reg=101, A_in=43440233, P_in=10000000, Dx=z, error=0
###############################
# COND is we && write_ptr==`T #
###############################
####################################
# COND is we && write_ptr >m <`T-1 #
####################################
time= 580, clk=1, reset=0, Ux=0, Vx=11, we=1,te=0, oe=0, wptr=e, tptr=c, CNT=20, min_state=100, PX[trc_ptr]=11111101, tb_reg=010, A_in=02334344, P_in=11110111, Dx=z, error=0
time= 600, clk=0, reset=0, Ux=1, Vx=11, we=1,te=0, oe=0, wptr=e, tptr=c, CNT=20, min_state=100, PX[trc_ptr]=11111101, tb_reg=010, A_in=02334344, P_in=11110111, Dx=z, error=0
####################################
# COND is we && write_ptr >m <`T-1 #
####################################
time= 620, clk=1, reset=0, Ux=1, Vx=11, we=1,te=0, oe=0, wptr=f, tptr=c, CNT=20, min_state=000, PX[trc_ptr]=11111101, tb_reg=100, A_in=20333444, P_in=00000100, Dx=z, error=0
time= 640, clk=0, reset=0, Ux=1, Vx=11, we=1,te=0, oe=0, wptr=f, tptr=c, CNT=20, min_state=000, PX[trc_ptr]=11111101, tb_reg=100, A_in=20333444, P_in=00000100, Dx=z, error=0
####################################
# COND is we && write_ptr >m <`T-1 #
####################################
time= 660, clk=1, reset=0, Ux=1, Vx=10, we=1,te=0, oe=0, wptr=0, tptr=c, CNT=20, min_state=001, PX[trc_ptr]=11111101, tb_reg=000, A_in=33204434, P_in=00000001, Dx=z, error=0
time= 680, clk=0, reset=0, Ux=0, Vx=10, we=1,te=0, oe=0, wptr=0, tptr=c, CNT=20, min_state=001, PX[trc_ptr]=11111101, tb_reg=000, A_in=33204434, P_in=00000001, Dx=z, error=0
###############################
# COND is we && write_ptr <`m #
###############################
time= 700, clk=1, reset=0, Ux=0, Vx=10, we=1,te=0, oe=0, wptr=1, tptr=c, CNT=20, min_state=011, PX[trc_ptr]=11111101, tb_reg=001, A_in=44433302, P_in=00100000, Dx=z, error=0
time= 720, clk=0, reset=0, Ux=0, Vx=10, we=1,te=0, oe=0, wptr=1, tptr=c, CNT=20, min_state=011, PX[trc_ptr]=11111101, tb_reg=001, A_in=44433302, P_in=00100000, Dx=z, error=0
###############################
# COND is we && write_ptr <`m #
###############################
time= 740, clk=1, reset=0, Ux=0, Vx=00, we=1,te=0, oe=0, wptr=2, tptr=c, CNT=20, min_state=110, PX[trc_ptr]=11111101, tb_reg=011, A_in=43440233, P_in=01111111, Dx=z, error=0
time= 760, clk=0, reset=0, Ux=1, Vx=00, we=1,te=0, oe=0, wptr=2, tptr=c, CNT=20, min_state=110, PX[trc_ptr]=11111101, tb_reg=011, A_in=43440233, P_in=01111111, Dx=z, error=0
###############################
# COND is we && write_ptr <`m #
###############################
time= 780, clk=1, reset=0, Ux=1, Vx=00, we=1,te=0, oe=0, wptr=3, tptr=c, CNT=20, min_state=100, PX[trc_ptr]=11111101, tb_reg=110, A_in=20333444, P_in=11111011, Dx=z, error=0
time= 800, clk=0, reset=0, Ux=0, Vx=00, we=1,te=0, oe=0, wptr=3, tptr=c, CNT=20, min_state=100, PX[trc_ptr]=11111101, tb_reg=110, A_in=20333444, P_in=11111011, Dx=z, error=0
###############################
# COND is we && write_ptr <`m #
###############################
time= 820, clk=1, reset=0, Ux=0, Vx=01, we=1,te=0, oe=0, wptr=4, tptr=c, CNT=20, min_state=001, PX[trc_ptr]=11111101, tb_reg=100, A_in=33024443, P_in=00000010, Dx=z, error=0
time= 840, clk=0, reset=0, Ux=0, Vx=01, we=1,te=0, oe=0, wptr=4, tptr=c, CNT=20, min_state=001, PX[trc_ptr]=11111101, tb_reg=100, A_in=33024443, P_in=00000010, Dx=z, error=0
####################################
# COND is we && write_ptr >m <`T-1 #
####################################
time= 860, clk=1, reset=0, Ux=0, Vx=11, we=1,te=0, oe=0, wptr=5, tptr=c, CNT=20, min_state=010, PX[trc_ptr]=11111101, tb_reg=001, A_in=43440233, P_in=10000000, Dx=z, error=0
time= 880, clk=0, reset=0, Ux=1, Vx=11, we=1,te=0, oe=0, wptr=5, tptr=c, CNT=20, min_state=010, PX[trc_ptr]=11111101, tb_reg=001, A_in=43440233, P_in=10000000, Dx=z, error=0
####################################
# COND is we && write_ptr >m <`T-1 #
####################################
time= 900, clk=1, reset=0, Ux=1, Vx=00, we=1,te=0, oe=0, wptr=6, tptr=c, CNT=20, min_state=100, PX[trc_ptr]=11111101, tb_reg=010, A_in=20333444, P_in=11111011, Dx=z, error=0
time= 920, clk=0, reset=0, Ux=0, Vx=00, we=1,te=0, oe=0, wptr=6, tptr=c, CNT=20, min_state=100, PX[trc_ptr]=11111101, tb_reg=010, A_in=20333444, P_in=11111011, Dx=z, error=0
####################################
# COND is we && write_ptr >m <`T-1 #
####################################
time= 940, clk=1, reset=0, Ux=0, Vx=01, we=1,te=0, oe=0, wptr=7, tptr=c, CNT=20, min_state=001, PX[trc_ptr]=11111101, tb_reg=100, A_in=33024443, P_in=00000010, Dx=z, error=0
time= 960, clk=0, reset=0, Ux=1, Vx=01, we=1,te=0, oe=0, wptr=7, tptr=c, CNT=20, min_state=001, PX[trc_ptr]=11111101, tb_reg=100, A_in=33024443, P_in=00000010, Dx=z, error=0
####################################
# COND is we && write_ptr >m <`T-1 #
####################################
time= 980, clk=1, reset=0, Ux=1, Vx=00, we=1,te=0, oe=0, wptr=8, tptr=c, CNT=20, min_state=010, PX[trc_ptr]=11111101, tb_reg=001, A_in=34442033, P_in=01000000, Dx=z, error=0
time=1000, clk=0, reset=0, Ux=0, Vx=00, we=1,te=0, oe=0, wptr=8, tptr=c, CNT=20, min_state=010, PX[trc_ptr]=11111101, tb_reg=001, A_in=34442033, P_in=01000000, Dx=z, error=0
####################################
# COND is we && write_ptr >m <`T-1 #
####################################
time=1020, clk=1, reset=0, Ux=0, Vx=10, we=1,te=0, oe=0, wptr=9, tptr=c, CNT=20, min_state=101, PX[trc_ptr]=11111101, tb_reg=010, A_in=33024443, P_in=11111101, Dx=z, error=0
time=1040, clk=0, reset=0, Ux=1, Vx=10, we=1,te=0, oe=0, wptr=9, tptr=c, CNT=20, min_state=101, PX[trc_ptr]=11111101, tb_reg=010, A_in=33024443, P_in=11111101, Dx=z, error=0
####################################
# COND is we && write_ptr >m <`T-1 #
####################################
time=1060, clk=1, reset=0, Ux=1, Vx=00, we=1,te=0, oe=0, wptr=a, tptr=c, CNT=20, min_state=010, PX[trc_ptr]=11111101, tb_reg=101, A_in=34442033, P_in=01000000, Dx=z, error=0
time=1080, clk=0, reset=0, Ux=0, Vx=00, we=1,te=0, oe=0, wptr=a, tptr=c, CNT=20, min_state=010, PX[trc_ptr]=11111101, tb_reg=101, A_in=34442033, P_in=01000000, Dx=z, error=0
####################################
# COND is we && write_ptr >m <`T-1 #
####################################
time=1100, clk=1, reset=0, Ux=0, Vx=10, we=1,te=0, oe=0, wptr=b, tptr=c, CNT=20, min_state=101, PX[trc_ptr]=11111101, tb_reg=010, A_in=33024443, P_in=11111101, Dx=z, error=0
time=1120, clk=0, reset=0, Ux=1, Vx=10, we=1,te=0, oe=0, wptr=b, tptr=c, CNT=20, min_state=101, PX[trc_ptr]=11111101, tb_reg=010, A_in=33024443, P_in=11111101, Dx=z, error=0
####################################
# COND is we && write_ptr >m <`T-1 #
####################################
time=1140, clk=1, reset=0, Ux=1, Vx=00, we=1,te=0, oe=0, wptr=c, tptr=c, CNT=20, min_state=010, PX[trc_ptr]=11111101, tb_reg=101, A_in=34442033, P_in=01000000, Dx=z, error=0
time=1160, clk=0, reset=0, Ux=0, Vx=00, we=1,te=0, oe=0, wptr=c, tptr=c, CNT=20, min_state=010, PX[trc_ptr]=11111101, tb_reg=101, A_in=34442033, P_in=01000000, Dx=z, error=0
####################################
# COND is we && write_ptr >m <`T-1 #
####################################
time=1180, clk=1, reset=0, Ux=0, Vx=10, we=1,te=0, oe=0, wptr=d, tptr=c, CNT=20, min_state=101, PX[trc_ptr]=01000000, tb_reg=010, A_in=33024443, P_in=11111101, Dx=z, error=0
time=1200, clk=0, reset=0, Ux=1, Vx=10, we=1,te=0, oe=0, wptr=d, tptr=c, CNT=20, min_state=101, PX[trc_ptr]=01000000, tb_reg=010, A_in=33024443, P_in=11111101, Dx=z, error=0
###############################
# COND is we && write_ptr==`T #
###############################
####################################
# COND is we && write_ptr >m <`T-1 #
####################################
time=1220, clk=1, reset=0, Ux=1, Vx=00, we=1,te=0, oe=0, wptr=e, tptr=c, CNT=20, min_state=010, PX[trc_ptr]=01000000, tb_reg=101, A_in=34442033, P_in=01000000, Dx=z, error=0
time=1240, clk=0, reset=0, Ux=0, Vx=00, we=1,te=0, oe=0, wptr=e, tptr=c, CNT=20, min_state=010, PX[trc_ptr]=01000000, tb_reg=101, A_in=34442033, P_in=01000000, Dx=z, error=0
####################################
# COND is we && write_ptr >m <`T-1 #
####################################
time=1260, clk=1, reset=0, Ux=0, Vx=10, we=1,te=0, oe=0, wptr=f, tptr=c, CNT=20, min_state=101, PX[trc_ptr]=01000000, tb_reg=010, A_in=33024443, P_in=11111101, Dx=z, error=0
time=1280, clk=0, reset=0, Ux=1, Vx=10, we=1,te=0, oe=0, wptr=f, tptr=c, CNT=20, min_state=101, PX[trc_ptr]=01000000, tb_reg=010, A_in=33024443, P_in=11111101, Dx=z, error=0
####################################
# COND is we && write_ptr >m <`T-1 #
####################################
time=1300, clk=1, reset=0, Ux=1, Vx=00, we=1,te=0, oe=0, wptr=0, tptr=c, CNT=20, min_state=010, PX[trc_ptr]=01000000, tb_reg=101, A_in=34442033, P_in=01000000, Dx=z, error=0
time=1320, clk=0, reset=0, Ux=0, Vx=00, we=1,te=0, oe=0, wptr=0, tptr=c, CNT=20, min_state=010, PX[trc_ptr]=01000000, tb_reg=101, A_in=34442033, P_in=01000000, Dx=z, error=0
###############################
# COND is we && write_ptr <`m #
###############################
time=1340, clk=1, reset=0, Ux=0, Vx=10, we=1,te=0, oe=0, wptr=1, tptr=c, CNT=20, min_state=101, PX[trc_ptr]=01000000, tb_reg=010, A_in=33024443, P_in=11111101, Dx=z, error=0
time=1360, clk=0, reset=0, Ux=1, Vx=10, we=1,te=0, oe=0, wptr=1, tptr=c, CNT=20, min_state=101, PX[trc_ptr]=01000000, tb_reg=010, A_in=33024443, P_in=11111101, Dx=z, error=0
###############################
# COND is we && write_ptr <`m #
###############################
time=1380, clk=1, reset=0, Ux=1, Vx=00, we=1,te=0, oe=0, wptr=2, tptr=c, CNT=20, min_state=010, PX[trc_ptr]=01000000, tb_reg=101, A_in=34442033, P_in=01000000, Dx=z, error=0
time=1400, clk=0, reset=0, Ux=0, Vx=00, we=1,te=0, oe=0, wptr=2, tptr=c, CNT=20, min_state=010, PX[trc_ptr]=01000000, tb_reg=101, A_in=34442033, P_in=01000000, Dx=z, error=0
###############################
# COND is we && write_ptr <`m #
###############################
time=1420, clk=1, reset=0, Ux=0, Vx=10, we=1,te=0, oe=0, wptr=3, tptr=c, CNT=20, min_state=101, PX[trc_ptr]=01000000, tb_reg=010, A_in=33024443, P_in=11111101, Dx=z, error=0
time=1440, clk=0, reset=0, Ux=1, Vx=10, we=1,te=0, oe=0, wptr=3, tptr=c, CNT=20, min_state=101, PX[trc_ptr]=01000000, tb_reg=010, A_in=33024443, P_in=11111101, Dx=z, error=0
###############################
# COND is we && write_ptr <`m #
###############################
time=1460, clk=1, reset=0, Ux=1, Vx=00, we=1,te=0, oe=0, wptr=4, tptr=c, CNT=20, min_state=010, PX[trc_ptr]=01000000, tb_reg=101, A_in=34442033, P_in=01000000, Dx=z, error=0
time=1480, clk=0, reset=0, Ux=0, Vx=00, we=1,te=0, oe=0, wptr=4, tptr=c, CNT=20, min_state=010, PX[trc_ptr]=01000000, tb_reg=101, A_in=34442033, P_in=01000000, Dx=z, error=0
####################################
# COND is we && write_ptr >m <`T-1 #
####################################
time=1500, clk=1, reset=0, Ux=0, Vx=10, we=1,te=0, oe=0, wptr=5, tptr=c, CNT=20, min_state=101, PX[trc_ptr]=01000000, tb_reg=010, A_in=33024443, P_in=11111101, Dx=z, error=0
time=1520, clk=0, reset=0, Ux=1, Vx=10, we=1,te=0, oe=0, wptr=5, tptr=c, CNT=20, min_state=101, PX[trc_ptr]=01000000, tb_reg=010, A_in=33024443, P_in=11111101, Dx=z, error=0
####################################
# COND is we && write_ptr >m <`T-1 #
####################################
time=1540, clk=1, reset=0, Ux=1, Vx=00, we=1,te=0, oe=0, wptr=6, tptr=c, CNT=20, min_state=010, PX[trc_ptr]=01000000, tb_reg=101, A_in=34442033, P_in=01000000, Dx=z, error=0
time=1560, clk=0, reset=0, Ux=0, Vx=00, we=1,te=0, oe=0, wptr=6, tptr=c, CNT=20, min_state=010, PX[trc_ptr]=01000000, tb_reg=101, A_in=34442033, P_in=01000000, Dx=z, error=0
####################################
# COND is we && write_ptr >m <`T-1 #
####################################
time=1580, clk=1, reset=0, Ux=0, Vx=10, we=1,te=0, oe=0, wptr=7, tptr=c, CNT=20, min_state=101, PX[trc_ptr]=01000000, tb_reg=010, A_in=33024443, P_in=11111101, Dx=z, error=0
time=1600, clk=0, reset=0, Ux=1, Vx=10, we=1,te=0, oe=0, wptr=7, tptr=c, CNT=20, min_state=101, PX[trc_ptr]=01000000, tb_reg=010, A_in=33024443, P_in=11111101, Dx=z, error=0
####################################
# COND is we && write_ptr >m <`T-1 #
####################################
time=1620, clk=1, reset=0, Ux=1, Vx=00, we=1,te=0, oe=0, wptr=8, tptr=c, CNT=20, min_state=010, PX[trc_ptr]=01000000, tb_reg=101, A_in=34442033, P_in=01000000, Dx=z, error=0
time=1640, clk=0, reset=0, Ux=1, Vx=00, we=1,te=0, oe=0, wptr=8, tptr=c, CNT=20, min_state=010, PX[trc_ptr]=01000000, tb_reg=101, A_in=34442033, P_in=01000000, Dx=z, error=0
####################################
# COND is we && write_ptr >m <`T-1 #
####################################
time=1660, clk=1, reset=0, Ux=1, Vx=01, we=1,te=0, oe=0, wptr=9, tptr=c, CNT=20, min_state=101, PX[trc_ptr]=01000000, tb_reg=010, A_in=33204434, P_in=11111110, Dx=z, error=0
time=1680, clk=0, reset=0, Ux=0, Vx=01, we=1,te=0, oe=0, wptr=9, tptr=c, CNT=20, min_state=101, PX[trc_ptr]=01000000, tb_reg=010, A_in=33204434, P_in=11111110, Dx=z, error=0
####################################
# COND is we && write_ptr >m <`T-1 #
####################################
time=1700, clk=1, reset=0, Ux=0, Vx=10, we=1,te=0, oe=0, wptr=a, tptr=c, CNT=20, min_state=011, PX[trc_ptr]=01000000, tb_reg=101, A_in=44433302, P_in=00100000, Dx=z, error=0
time=1720, clk=0, reset=0, Ux=1, Vx=10, we=1,te=0, oe=0, wptr=a, tptr=c, CNT=20, min_state=011, PX[trc_ptr]=01000000, tb_reg=101, A_in=44433302, P_in=00100000, Dx=z, error=0
####################################
# COND is we && write_ptr >m <`T-1 #
####################################
time=1740, clk=1, reset=0, Ux=1, Vx=11, we=1,te=0, oe=0, wptr=b, tptr=c, CNT=20, min_state=110, PX[trc_ptr]=01000000, tb_reg=011, A_in=34442033, P_in=10111111, Dx=z, error=0
time=1760, clk=0, reset=0, Ux=0, Vx=11, we=1,te=0, oe=0, wptr=b, tptr=c, CNT=20, min_state=110, PX[trc_ptr]=01000000, tb_reg=011, A_in=34442033, P_in=10111111, Dx=z, error=0
####################################
# COND is we && write_ptr >m <`T-1 #
####################################
time=1780, clk=1, reset=0, Ux=0, Vx=10, we=1,te=0, oe=0, wptr=c, tptr=c, CNT=20, min_state=101, PX[trc_ptr]=01000000, tb_reg=110, A_in=33024443, P_in=11111101, Dx=z, error=0
time=1800, clk=0, reset=0, Ux=1, Vx=10, we=1,te=0, oe=0, wptr=c, tptr=c, CNT=20, min_state=101, PX[trc_ptr]=01000000, tb_reg=110, A_in=33024443, P_in=11111101, Dx=z, error=0
####################################
# COND is we && write_ptr >m <`T-1 #
####################################
time=1820, clk=1, reset=0, Ux=1, Vx=00, we=1,te=0, oe=0, wptr=d, tptr=c, CNT=20, min_state=010, PX[trc_ptr]=11111101, tb_reg=101, A_in=34442033, P_in=01000000, Dx=z, error=0
time=1840, clk=0, reset=0, Ux=0, Vx=00, we=1,te=0, oe=0, wptr=d, tptr=c, CNT=20, min_state=010, PX[trc_ptr]=11111101, tb_reg=101, A_in=34442033, P_in=01000000, Dx=z, error=0
###############################
# COND is we && write_ptr==`T #
###############################
####################################
# COND is we && write_ptr >m <`T-1 #
####################################
time=1860, clk=1, reset=0, Ux=0, Vx=10, we=1,te=0, oe=0, wptr=e, tptr=c, CNT=20, min_state=101, PX[trc_ptr]=11111101, tb_reg=010, A_in=33024443, P_in=11111101, Dx=z, error=0
time=1880, clk=0, reset=0, Ux=1, Vx=10, we=1,te=0, oe=0, wptr=e, tptr=c, CNT=20, min_state=101, PX[trc_ptr]=11111101, tb_reg=010, A_in=33024443, P_in=11111101, Dx=z, error=0
####################################
# COND is we && write_ptr >m <`T-1 #
####################################
time=1900, clk=1, reset=0, Ux=1, Vx=00, we=1,te=0, oe=0, wptr=f, tptr=c, CNT=20, min_state=010, PX[trc_ptr]=11111101, tb_reg=101, A_in=34442033, P_in=01000000, Dx=z, error=0
time=1920, clk=0, reset=0, Ux=0, Vx=00, we=1,te=0, oe=0, wptr=f, tptr=c, CNT=20, min_state=010, PX[trc_ptr]=11111101, tb_reg=101, A_in=34442033, P_in=01000000, Dx=z, error=0
####################################
# COND is we && write_ptr >m <`T-1 #
####################################
time=1940, clk=1, reset=0, Ux=0, Vx=10, we=1,te=0, oe=0, wptr=0, tptr=c, CNT=20, min_state=101, PX[trc_ptr]=11111101, tb_reg=010, A_in=33024443, P_in=11111101, Dx=z, error=0
time=1960, clk=0, reset=0, Ux=1, Vx=10, we=1,te=0, oe=0, wptr=0, tptr=c, CNT=20, min_state=101, PX[trc_ptr]=11111101, tb_reg=010, A_in=33024443, P_in=11111101, Dx=z, error=0
###############################
# COND is we && write_ptr <`m #
###############################
time=1980, clk=1, reset=0, Ux=1, Vx=00, we=1,te=0, oe=0, wptr=1, tptr=c, CNT=20, min_state=010, PX[trc_ptr]=11111101, tb_reg=101, A_in=34442033, P_in=01000000, Dx=z, error=0
time=2000, clk=0, reset=0, Ux=0, Vx=00, we=1,te=0, oe=0, wptr=1, tptr=c, CNT=20, min_state=010, PX[trc_ptr]=11111101, tb_reg=101, A_in=34442033, P_in=01000000, Dx=z, error=0
###############################
# COND is we && write_ptr <`m #
###############################
time=2020, clk=1, reset=0, Ux=0, Vx=10, we=1,te=0, oe=0, wptr=2, tptr=c, CNT=20, min_state=101, PX[trc_ptr]=11111101, tb_reg=010, A_in=33024443, P_in=11111101, Dx=z, error=0
time=2040, clk=0, reset=0, Ux=1, Vx=10, we=1,te=0, oe=0, wptr=2, tptr=c, CNT=20, min_state=101, PX[trc_ptr]=11111101, tb_reg=010, A_in=33024443, P_in=11111101, Dx=z, error=0
###############################
# COND is we && write_ptr <`m #
###############################
time=2060, clk=1, reset=0, Ux=1, Vx=00, we=1,te=0, oe=0, wptr=3, tptr=c, CNT=20, min_state=010, PX[trc_ptr]=11111101, tb_reg=101, A_in=34442033, P_in=01000000, Dx=z, error=0
time=2080, clk=0, reset=0, Ux=0, Vx=00, we=1,te=0, oe=0, wptr=3, tptr=c, CNT=20, min_state=010, PX[trc_ptr]=11111101, tb_reg=101, A_in=34442033, P_in=01000000, Dx=z, error=0
###############################
# COND is we && write_ptr <`m #
###############################
time=2100, clk=1, reset=0, Ux=0, Vx=10, we=1,te=0, oe=0, wptr=4, tptr=c, CNT=20, min_state=101, PX[trc_ptr]=11111101, tb_reg=010, A_in=33024443, P_in=11111101, Dx=z, error=0
