Vit_e322/src/verilog.log
Host command: verilog
Command arguments:
    -f sim_e322.script
        tb_e322.v
        eBMU_322.v
        eACS_322.v
        eACSU_322.v
        eTBDECISION_322.v
        eSYNCERR_322.v
        eCONTROL_322.v
        eVITERBI_322.v
        +libext+.v+.V
        -y /hwapps/xilinx/M.1.5.i/verilog/src/UNI4000X

VERILOG-XL 3.0.s007 log file created Mar 18, 2001  18:21:29
VERILOG-XL 3.0.s007   Mar 18, 2001  18:21:29

Copyright (c) 1995 Cadence Design Systems, Inc.  All Rights Reserved.
Unpublished -- rights reserved under the copyright laws of the United States.

Copyright (c) 1995 UNIX Systems Laboratories, Inc.  Reproduced with Permission.

THIS SOFTWARE AND ON-LINE DOCUMENTATION CONTAIN CONFIDENTIAL INFORMATION
AND TRADE SECRETS OF CADENCE DESIGN SYSTEMS, INC.  USE, DISCLOSURE, OR
REPRODUCTION IS PROHIBITED WITHOUT THE PRIOR EXPRESS WRITTEN PERMISSION OF
CADENCE DESIGN SYSTEMS, INC.
RESTRICTED RIGHTS LEGEND

Use, duplication, or disclosure by the Government is subject to
restrictions as set forth in subparagraph (c)(1)(ii) of the Rights in
Technical Data and Computer Software clause at DFARS 252.227-7013 or
subparagraphs (c)(1) and (2) of Commercial Computer Software -- Restricted
Rights at 48 CFR 52.227-19, as applicable.

                Cadence Design Systems, Inc.
                555 River Oaks Parkway
                San Jose, California  95134

For technical assistance please contact the Cadence Response Center at
1-877-CDS-4911 or send email to support@cadence.com

For more information on Cadence's Verilog-XL product line send email to
talkverilog@cadence.com

For quick reference of Cadence's Verilog-XL product command line options
Please look at the html page <instal_path>/tools/verilog/doc/index.html 
in a web browser

Compiling source file "tb_e322.v"
Compiling included source file "params_e322.inc"
Continuing compilation of source file "tb_e322.v"
Compiling source file "eBMU_322.v"
Compiling included source file "params_e322.inc"
Continuing compilation of source file "eBMU_322.v"
Compiling source file "eACS_322.v"
Compiling included source file "params_e322.inc"
Continuing compilation of source file "eACS_322.v"
Compiling source file "eACSU_322.v"
Compiling included source file "params_e322.inc"
Continuing compilation of source file "eACSU_322.v"
Compiling source file "eTBDECISION_322.v"
Compiling included source file "params_e322.inc"
Continuing compilation of source file "eTBDECISION_322.v"
Compiling source file "eSYNCERR_322.v"
Compiling source file "eCONTROL_322.v"
Compiling included source file "params_e322.inc"
Continuing compilation of source file "eCONTROL_322.v"
Compiling source file "eVITERBI_322.v"
Compiling included source file "params_e322.inc"
Continuing compilation of source file "eVITERBI_322.v"
Highest level modules:
tb_e322

Debussy Release 4.4.h9 (May  5 2000 compile) Verilog-XL Version
Fsdb file verilog.fsdb is created
time=   0, clock=0, Rx=xxx, we=0, te=0, oe=0, wptr=0, tptr=0, min_state=000, tb_reg=000,A_in=00000000,P_in=0000000000000000,tb=000,plabels=xxxxxxxxxxxxxxxx,Dx=zz, ns=0000001
time=  20, clock=1, Rx=xxx, we=0, te=0, oe=0, wptr=0, tptr=0, min_state=000, tb_reg=000,A_in=00000000,P_in=0000000000000000,tb=000,plabels=xxxxxxxxxxxxxxxx,Dx=zz, ns=0000001
time=  40, clock=0, Rx=000, we=0, te=0, oe=0, wptr=0, tptr=0, min_state=000, tb_reg=000,A_in=00000000,P_in=0000000000000000,tb=000,plabels=xxxxxxxxxxxxxxxx,Dx=zz, ns=0000001
time=  60, clock=1, Rx=000, we=0, te=0, oe=0, wptr=0, tptr=0, min_state=000, tb_reg=000,A_in=00000000,P_in=0000000000000000,tb=000,plabels=xxxxxxxxxxxxxxxx,Dx=zz, ns=0000010
time=  80, clock=0, Rx=000, we=0, te=0, oe=0, wptr=0, tptr=0, min_state=000, tb_reg=000,A_in=00000000,P_in=0000000000000000,tb=000,plabels=xxxxxxxxxxxxxxxx,Dx=zz, ns=0000010
time= 100, clock=1, Rx=000, we=0, te=0, oe=0, wptr=0, tptr=0, min_state=000, tb_reg=000,A_in=00000000,P_in=0000000000000000,tb=000,plabels=xxxxxxxxxxxxxxxx,Dx=zz, ns=0000100
time= 120, clock=0, Rx=000, we=0, te=0, oe=0, wptr=0, tptr=0, min_state=000, tb_reg=000,A_in=00000000,P_in=0000000000000000,tb=000,plabels=xxxxxxxxxxxxxxxx,Dx=zz, ns=0000100
time= 140, clock=1, Rx=000, we=0, te=0, oe=0, wptr=0, tptr=0, min_state=000, tb_reg=000,A_in=00000000,P_in=0000000000000000,tb=000,plabels=xxxxxxxxxxxxxxxx,Dx=zz, ns=0001000
time= 160, clock=0, Rx=011, we=0, te=0, oe=0, wptr=0, tptr=0, min_state=000, tb_reg=000,A_in=00000000,P_in=0000000000000000,tb=000,plabels=xxxxxxxxxxxxxxxx,Dx=zz, ns=0001000
time= 180, clock=1, Rx=011, we=1, te=0, oe=0, wptr=1, tptr=0, min_state=000, tb_reg=000,A_in=0222ffff,P_in=0000000000000000,tb=000,plabels=xxxxxxxxxxxxxxxx,Dx=zz, ns=0000010
time= 200, clock=0, Rx=011, we=1, te=0, oe=0, wptr=1, tptr=0, min_state=000, tb_reg=000,A_in=0222ffff,P_in=0000000000000000,tb=000,plabels=xxxxxxxxxxxxxxxx,Dx=zz, ns=0000010
time= 220, clock=1, Rx=011, we=0, te=0, oe=0, wptr=1, tptr=0, min_state=000, tb_reg=000,A_in=0222ffff,P_in=0000000000000000,tb=000,plabels=xxxxxxxxxxxxxxxx,Dx=zz, ns=0000100
time= 240, clock=0, Rx=011, we=0, te=0, oe=0, wptr=1, tptr=0, min_state=000, tb_reg=000,A_in=0222ffff,P_in=0000000000000000,tb=000,plabels=xxxxxxxxxxxxxxxx,Dx=zz, ns=0000100
time= 260, clock=1, Rx=011, we=0, te=0, oe=0, wptr=1, tptr=0, min_state=000, tb_reg=000,A_in=0222ffff,P_in=0000000000000000,tb=000,plabels=xxxxxxxxxxxxxxxx,Dx=zz, ns=0001000
time= 280, clock=0, Rx=111, we=0, te=0, oe=0, wptr=1, tptr=0, min_state=000, tb_reg=000,A_in=0222ffff,P_in=0000000000000000,tb=000,plabels=xxxxxxxxxxxxxxxx,Dx=zz, ns=0001000
time= 300, clock=1, Rx=111, we=1, te=0, oe=0, wptr=2, tptr=0, min_state=011, tb_reg=000,A_in=22203333,P_in=0000000000010000,tb=000,plabels=xxxxxxxxxxxxxxxx,Dx=zz, ns=0000010
time= 320, clock=0, Rx=111, we=1, te=0, oe=0, wptr=2, tptr=0, min_state=011, tb_reg=000,A_in=22203333,P_in=0000000000010000,tb=000,plabels=xxxxxxxxxxxxxxxx,Dx=zz, ns=0000010
time= 340, clock=1, Rx=111, we=0, te=0, oe=0, wptr=2, tptr=0, min_state=011, tb_reg=000,A_in=22203333,P_in=0000000000010000,tb=000,plabels=xxxxxxxxxxxxxxxx,Dx=zz, ns=0000100
time= 360, clock=0, Rx=111, we=0, te=0, oe=0, wptr=2, tptr=0, min_state=011, tb_reg=000,A_in=22203333,P_in=0000000000010000,tb=000,plabels=xxxxxxxxxxxxxxxx,Dx=zz, ns=0000100
time= 380, clock=1, Rx=111, we=0, te=0, oe=0, wptr=2, tptr=0, min_state=011, tb_reg=000,A_in=22203333,P_in=0000000000010000,tb=000,plabels=xxxxxxxxxxxxxxxx,Dx=zz, ns=0001000
time= 400, clock=0, Rx=011, we=0, te=0, oe=0, wptr=2, tptr=0, min_state=011, tb_reg=000,A_in=22203333,P_in=0000000000010000,tb=000,plabels=xxxxxxxxxxxxxxxx,Dx=zz, ns=0001000
time= 420, clock=1, Rx=011, we=1, te=0, oe=0, wptr=3, tptr=0, min_state=101, tb_reg=000,A_in=33332022,P_in=0100000001010001,tb=000,plabels=xxxxxxxxxxxxxxxx,Dx=zz, ns=0000010
time= 440, clock=0, Rx=011, we=1, te=0, oe=0, wptr=3, tptr=0, min_state=101, tb_reg=000,A_in=33332022,P_in=0100000001010001,tb=000,plabels=xxxxxxxxxxxxxxxx,Dx=zz, ns=0000010
time= 460, clock=1, Rx=011, we=0, te=0, oe=0, wptr=3, tptr=0, min_state=101, tb_reg=000,A_in=33332022,P_in=0100000001010001,tb=000,plabels=xxxxxxxxxxxxxxxx,Dx=zz, ns=0000100
time= 480, clock=0, Rx=011, we=0, te=0, oe=0, wptr=3, tptr=0, min_state=101, tb_reg=000,A_in=33332022,P_in=0100000001010001,tb=000,plabels=xxxxxxxxxxxxxxxx,Dx=zz, ns=0000100
time= 500, clock=1, Rx=011, we=0, te=0, oe=0, wptr=3, tptr=0, min_state=101, tb_reg=000,A_in=33332022,P_in=0100000001010001,tb=000,plabels=xxxxxxxxxxxxxxxx,Dx=zz, ns=0001000
time= 520, clock=0, Rx=100, we=0, te=0, oe=0, wptr=3, tptr=0, min_state=101, tb_reg=000,A_in=33332022,P_in=0100000001010001,tb=000,plabels=xxxxxxxxxxxxxxxx,Dx=zz, ns=0001000
time= 540, clock=1, Rx=100, we=1, te=0, oe=0, wptr=4, tptr=0, min_state=010, tb_reg=000,A_in=22023333,P_in=1110111110101011,tb=000,plabels=xxxxxxxxxxxxxxxx,Dx=zz, ns=0000010
time= 560, clock=0, Rx=100, we=1, te=0, oe=0, wptr=4, tptr=0, min_state=010, tb_reg=000,A_in=22023333,P_in=1110111110101011,tb=000,plabels=xxxxxxxxxxxxxxxx,Dx=zz, ns=0000010
time= 580, clock=1, Rx=100, we=0, te=0, oe=0, wptr=4, tptr=0, min_state=010, tb_reg=000,A_in=22023333,P_in=1110111110101011,tb=000,plabels=xxxxxxxxxxxxxxxx,Dx=zz, ns=0000100
time= 600, clock=0, Rx=100, we=0, te=0, oe=0, wptr=4, tptr=0, min_state=010, tb_reg=000,A_in=22023333,P_in=1110111110101011,tb=000,plabels=xxxxxxxxxxxxxxxx,Dx=zz, ns=0000100
time= 620, clock=1, Rx=100, we=0, te=0, oe=0, wptr=4, tptr=0, min_state=010, tb_reg=000,A_in=22023333,P_in=1110111110101011,tb=000,plabels=xxxxxxxxxxxxxxxx,Dx=zz, ns=0001000
time= 640, clock=0, Rx=110, we=0, te=0, oe=0, wptr=4, tptr=0, min_state=010, tb_reg=000,A_in=22023333,P_in=1110111110101011,tb=000,plabels=xxxxxxxxxxxxxxxx,Dx=zz, ns=0001000
time= 660, clock=1, Rx=110, we=1, te=0, oe=0, wptr=5, tptr=0, min_state=101, tb_reg=000,A_in=33332022,P_in=0000000100000000,tb=000,plabels=xxxxxxxxxxxxxxxx,Dx=zz, ns=0000010
time= 680, clock=0, Rx=110, we=1, te=0, oe=0, wptr=5, tptr=0, min_state=101, tb_reg=000,A_in=33332022,P_in=0000000100000000,tb=000,plabels=xxxxxxxxxxxxxxxx,Dx=zz, ns=0000010
time= 700, clock=1, Rx=110, we=0, te=0, oe=0, wptr=5, tptr=0, min_state=101, tb_reg=000,A_in=33332022,P_in=0000000100000000,tb=000,plabels=xxxxxxxxxxxxxxxx,Dx=zz, ns=0000100
time= 720, clock=0, Rx=110, we=0, te=0, oe=0, wptr=5, tptr=0, min_state=101, tb_reg=000,A_in=33332022,P_in=0000000100000000,tb=000,plabels=xxxxxxxxxxxxxxxx,Dx=zz, ns=0000100
time= 740, clock=1, Rx=110, we=0, te=0, oe=0, wptr=5, tptr=0, min_state=101, tb_reg=000,A_in=33332022,P_in=0000000100000000,tb=000,plabels=xxxxxxxxxxxxxxxx,Dx=zz, ns=0001000
time= 760, clock=0, Rx=010, we=0, te=0, oe=0, wptr=5, tptr=0, min_state=101, tb_reg=000,A_in=33332022,P_in=0000000100000000,tb=000,plabels=xxxxxxxxxxxxxxxx,Dx=zz, ns=0001000
time= 780, clock=1, Rx=010, we=1, te=0, oe=0, wptr=6, tptr=0, min_state=011, tb_reg=000,A_in=22203333,P_in=1011111110101110,tb=000,plabels=xxxxxxxxxxxxxxxx,Dx=zz, ns=0000010
time= 800, clock=0, Rx=010, we=1, te=0, oe=0, wptr=6, tptr=0, min_state=011, tb_reg=000,A_in=22203333,P_in=1011111110101110,tb=000,plabels=xxxxxxxxxxxxxxxx,Dx=zz, ns=0000010
time= 820, clock=1, Rx=010, we=0, te=0, oe=0, wptr=6, tptr=0, min_state=011, tb_reg=000,A_in=22203333,P_in=1011111110101110,tb=000,plabels=xxxxxxxxxxxxxxxx,Dx=zz, ns=0000100
time= 840, clock=0, Rx=010, we=0, te=0, oe=0, wptr=6, tptr=0, min_state=011, tb_reg=000,A_in=22203333,P_in=1011111110101110,tb=000,plabels=xxxxxxxxxxxxxxxx,Dx=zz, ns=0000100
time= 860, clock=1, Rx=010, we=0, te=0, oe=0, wptr=6, tptr=0, min_state=011, tb_reg=000,A_in=22203333,P_in=1011111110101110,tb=000,plabels=xxxxxxxxxxxxxxxx,Dx=zz, ns=0001000
time= 880, clock=0, Rx=000, we=0, te=0, oe=0, wptr=6, tptr=0, min_state=011, tb_reg=000,A_in=22203333,P_in=1011111110101110,tb=000,plabels=xxxxxxxxxxxxxxxx,Dx=zz, ns=0001000
time= 900, clock=1, Rx=000, we=1, te=0, oe=0, wptr=7, tptr=0, min_state=100, tb_reg=000,A_in=33330222,P_in=0001000001010100,tb=000,plabels=xxxxxxxxxxxxxxxx,Dx=zz, ns=0000010
time= 920, clock=0, Rx=000, we=1, te=0, oe=0, wptr=7, tptr=0, min_state=100, tb_reg=000,A_in=33330222,P_in=0001000001010100,tb=000,plabels=xxxxxxxxxxxxxxxx,Dx=zz, ns=0000010
time= 940, clock=1, Rx=000, we=0, te=0, oe=0, wptr=7, tptr=0, min_state=100, tb_reg=000,A_in=33330222,P_in=0001000001010100,tb=000,plabels=xxxxxxxxxxxxxxxx,Dx=zz, ns=0000100
time= 960, clock=0, Rx=000, we=0, te=0, oe=0, wptr=7, tptr=0, min_state=100, tb_reg=000,A_in=33330222,P_in=0001000001010100,tb=000,plabels=xxxxxxxxxxxxxxxx,Dx=zz, ns=0000100
time= 980, clock=1, Rx=000, we=0, te=0, oe=0, wptr=7, tptr=0, min_state=100, tb_reg=000,A_in=33330222,P_in=0001000001010100,tb=000,plabels=xxxxxxxxxxxxxxxx,Dx=zz, ns=0001000
time=1000, clock=0, Rx=100, we=0, te=0, oe=0, wptr=7, tptr=0, min_state=100, tb_reg=000,A_in=33330222,P_in=0001000001010100,tb=000,plabels=xxxxxxxxxxxxxxxx,Dx=zz, ns=0001000
time=1020, clock=1, Rx=100, we=1, te=0, oe=0, wptr=8, tptr=0, min_state=010, tb_reg=000,A_in=22023333,P_in=1010101011101010,tb=000,plabels=xxxxxxxxxxxxxxxx,Dx=zz, ns=0000010
time=1040, clock=0, Rx=100, we=1, te=0, oe=0, wptr=8, tptr=0, min_state=010, tb_reg=000,A_in=22023333,P_in=1010101011101010,tb=000,plabels=xxxxxxxxxxxxxxxx,Dx=zz, ns=0000010
time=1060, clock=1, Rx=100, we=0, te=0, oe=0, wptr=8, tptr=0, min_state=010, tb_reg=000,A_in=22023333,P_in=1010101011101010,tb=000,plabels=xxxxxxxxxxxxxxxx,Dx=zz, ns=0000100
time=1080, clock=0, Rx=100, we=0, te=0, oe=0, wptr=8, tptr=0, min_state=010, tb_reg=000,A_in=22023333,P_in=1010101011101010,tb=000,plabels=xxxxxxxxxxxxxxxx,Dx=zz, ns=0000100
time=1100, clock=1, Rx=100, we=0, te=0, oe=0, wptr=8, tptr=0, min_state=010, tb_reg=000,A_in=22023333,P_in=1010101011101010,tb=000,plabels=xxxxxxxxxxxxxxxx,Dx=zz, ns=0001000
time=1120, clock=0, Rx=011, we=0, te=0, oe=0, wptr=8, tptr=0, min_state=010, tb_reg=000,A_in=22023333,P_in=1010101011101010,tb=000,plabels=xxxxxxxxxxxxxxxx,Dx=zz, ns=0001000
time=1140, clock=1, Rx=011, we=1, te=0, oe=0, wptr=9, tptr=0, min_state=101, tb_reg=000,A_in=33332022,P_in=0000000100000000,tb=000,plabels=xxxxxxxxxxxxxxxx,Dx=zz, ns=0010000
time=1160, clock=0, Rx=011, we=1, te=0, oe=0, wptr=9, tptr=0, min_state=101, tb_reg=000,A_in=33332022,P_in=0000000100000000,tb=000,plabels=xxxxxxxxxxxxxxxx,Dx=zz, ns=0010000
time=1180, clock=1, Rx=011, we=0, te=0, oe=0, wptr=8, tptr=8, min_state=101, tb_reg=101,A_in=33332022,P_in=0000000100000000,tb=110,plabels=xxxxxxxxxxxxxxxx,Dx=zz, ns=0100000
time=1200, clock=0, Rx=011, we=0, te=0, oe=0, wptr=8, tptr=8, min_state=101, tb_reg=101,A_in=33332022,P_in=0000000100000000,tb=110,plabels=xxxxxxxxxxxxxxxx,Dx=zz, ns=0100000
time=1220, clock=1, Rx=011, we=0, te=1, oe=0, wptr=8, tptr=7, min_state=101, tb_reg=101,A_in=33332022,P_in=0000000100000000,tb=010,plabels=xxxxxxxxxxxxxxxx,Dx=zz, ns=0100000
time=1240, clock=0, Rx=011, we=0, te=1, oe=0, wptr=8, tptr=7, min_state=101, tb_reg=101,A_in=33332022,P_in=0000000100000000,tb=010,plabels=xxxxxxxxxxxxxxxx,Dx=zz, ns=0100000
time=1260, clock=1, Rx=011, we=0, te=1, oe=0, wptr=8, tptr=6, min_state=101, tb_reg=011,A_in=33332022,P_in=0000000100000000,tb=101,plabels=xxxxxxxxxxxxxxxx,Dx=zz, ns=0100000
time=1280, clock=0, Rx=011, we=0, te=1, oe=0, wptr=8, tptr=6, min_state=101, tb_reg=011,A_in=33332022,P_in=0000000100000000,tb=101,plabels=xxxxxxxxxxxxxxxx,Dx=zz, ns=0100000
time=1300, clock=1, Rx=011, we=0, te=1, oe=0, wptr=8, tptr=5, min_state=101, tb_reg=101,A_in=33332022,P_in=0000000100000000,tb=010,plabels=xxxxxxxxxxxxxxxx,Dx=zz, ns=0100000
time=1320, clock=0, Rx=011, we=0, te=1, oe=0, wptr=8, tptr=5, min_state=101, tb_reg=101,A_in=33332022,P_in=0000000100000000,tb=010,plabels=xxxxxxxxxxxxxxxx,Dx=zz, ns=0100000
time=1340, clock=1, Rx=011, we=0, te=1, oe=0, wptr=8, tptr=4, min_state=101, tb_reg=010,A_in=33332022,P_in=0000000100000000,tb=101,plabels=xxxxxxxxxxxxxxxx,Dx=zz, ns=0100000
time=1360, clock=0, Rx=011, we=0, te=1, oe=0, wptr=8, tptr=4, min_state=101, tb_reg=010,A_in=33332022,P_in=0000000100000000,tb=101,plabels=xxxxxxxxxxxxxxxx,Dx=zz, ns=0100000
time=1380, clock=1, Rx=011, we=0, te=1, oe=0, wptr=8, tptr=3, min_state=101, tb_reg=101,A_in=33332022,P_in=0000000100000000,tb=010,plabels=xxxxxxxxxxxxxxxx,Dx=zz, ns=0100000
time=1400, clock=0, Rx=011, we=0, te=1, oe=0, wptr=8, tptr=3, min_state=101, tb_reg=101,A_in=33332022,P_in=0000000100000000,tb=010,plabels=xxxxxxxxxxxxxxxx,Dx=zz, ns=0100000
time=1420, clock=1, Rx=011, we=0, te=1, oe=0, wptr=8, tptr=2, min_state=101, tb_reg=011,A_in=33332022,P_in=0000000100000000,tb=000,plabels=xxxxxxxxxxxxxxxx,Dx=zz, ns=0100000
time=1440, clock=0, Rx=011, we=0, te=1, oe=0, wptr=8, tptr=2, min_state=101, tb_reg=011,A_in=33332022,P_in=0000000100000000,tb=000,plabels=xxxxxxxxxxxxxxxx,Dx=zz, ns=0100000
time=1460, clock=1, Rx=011, we=0, te=0, oe=0, wptr=8, tptr=2, min_state=101, tb_reg=000,A_in=33332022,P_in=0000000100000000,tb=000,plabels=xxxxxxxxxxxxxxxx,Dx=zz, ns=1000000
time=1480, clock=0, Rx=011, we=0, te=0, oe=0, wptr=8, tptr=2, min_state=101, tb_reg=000,A_in=33332022,P_in=0000000100000000,tb=000,plabels=xxxxxxxxxxxxxxxx,Dx=zz, ns=1000000
time=1500, clock=1, Rx=011, we=0, te=0, oe=1, wptr=8, tptr=2, min_state=101, tb_reg=000,A_in=33332022,P_in=0000000100000000,tb=000,plabels=xxxxxxxxxxxxxxxx,Dx=00, ns=0000010
time=1520, clock=0, Rx=011, we=0, te=0, oe=1, wptr=8, tptr=2, min_state=101, tb_reg=000,A_in=33332022,P_in=0000000100000000,tb=000,plabels=xxxxxxxxxxxxxxxx,Dx=00, ns=0000010
time=1540, clock=1, Rx=011, we=0, te=0, oe=0, wptr=8, tptr=2, min_state=101, tb_reg=000,A_in=33332022,P_in=0000000100000000,tb=000,plabels=xxxxxxxxxxxxxxxx,Dx=zz, ns=0000100
time=1560, clock=0, Rx=011, we=0, te=0, oe=0, wptr=8, tptr=2, min_state=101, tb_reg=000,A_in=33332022,P_in=0000000100000000,tb=000,plabels=xxxxxxxxxxxxxxxx,Dx=zz, ns=0000100
time=1580, clock=1, Rx=011, we=0, te=0, oe=0, wptr=8, tptr=2, min_state=101, tb_reg=000,A_in=33332022,P_in=0000000100000000,tb=000,plabels=xxxxxxxxxxxxxxxx,Dx=zz, ns=0001000
time=1600, clock=0, Rx=011, we=0, te=0, oe=0, wptr=8, tptr=2, min_state=101, tb_reg=000,A_in=33332022,P_in=0000000100000000,tb=000,plabels=xxxxxxxxxxxxxxxx,Dx=zz, ns=0001000
time=1620, clock=1, Rx=011, we=1, te=0, oe=0, wptr=9, tptr=2, min_state=010, tb_reg=000,A_in=22023333,P_in=1110111110101011,tb=000,plabels=xxxxxxxxxxxxxxxx,Dx=zz, ns=0010000
time=1640, clock=0, Rx=100, we=1, te=0, oe=0, wptr=9, tptr=2, min_state=010, tb_reg=000,A_in=22023333,P_in=1110111110101011,tb=000,plabels=xxxxxxxxxxxxxxxx,Dx=zz, ns=0010000
time=1660, clock=1, Rx=100, we=0, te=0, oe=0, wptr=8, tptr=8, min_state=010, tb_reg=010,A_in=22023333,P_in=1110111110101011,tb=000,plabels=xxxxxxxxxxxxxxxx,Dx=zz, ns=0100000
time=1680, clock=0, Rx=100, we=0, te=0, oe=0, wptr=8, tptr=8, min_state=010, tb_reg=010,A_in=22023333,P_in=1110111110101011,tb=000,plabels=xxxxxxxxxxxxxxxx,Dx=zz, ns=0100000
time=1700, clock=1, Rx=100, we=0, te=1, oe=0, wptr=8, tptr=7, min_state=010, tb_reg=010,A_in=22023333,P_in=1110111110101011,tb=100,plabels=xxxxxxxxxxxxxxxx,Dx=zz, ns=0100000
time=1720, clock=0, Rx=100, we=0, te=1, oe=0, wptr=8, tptr=7, min_state=010, tb_reg=010,A_in=22023333,P_in=1110111110101011,tb=100,plabels=xxxxxxxxxxxxxxxx,Dx=zz, ns=0100000
time=1740, clock=1, Rx=100, we=0, te=1, oe=0, wptr=8, tptr=6, min_state=010, tb_reg=100,A_in=22023333,P_in=1110111110101011,tb=010,plabels=xxxxxxxxxxxxxxxx,Dx=zz, ns=0100000
time=1760, clock=0, Rx=100, we=0, te=1, oe=0, wptr=8, tptr=6, min_state=010, tb_reg=100,A_in=22023333,P_in=1110111110101011,tb=010,plabels=xxxxxxxxxxxxxxxx,Dx=zz, ns=0100000
time=1780, clock=1, Rx=100, we=0, te=1, oe=0, wptr=8, tptr=5, min_state=010, tb_reg=011,A_in=22023333,P_in=1110111110101011,tb=101,plabels=xxxxxxxxxxxxxxxx,Dx=zz, ns=0100000
time=1800, clock=0, Rx=100, we=0, te=1, oe=0, wptr=8, tptr=5, min_state=010, tb_reg=011,A_in=22023333,P_in=1110111110101011,tb=101,plabels=xxxxxxxxxxxxxxxx,Dx=zz, ns=0100000
time=1820, clock=1, Rx=100, we=0, te=1, oe=0, wptr=8, tptr=4, min_state=010, tb_reg=101,A_in=22023333,P_in=1110111110101011,tb=010,plabels=xxxxxxxxxxxxxxxx,Dx=zz, ns=0100000
time=1840, clock=0, Rx=100, we=0, te=1, oe=0, wptr=8, tptr=4, min_state=010, tb_reg=101,A_in=22023333,P_in=1110111110101011,tb=010,plabels=xxxxxxxxxxxxxxxx,Dx=zz, ns=0100000
time=1860, clock=1, Rx=100, we=0, te=1, oe=0, wptr=8, tptr=3, min_state=010, tb_reg=010,A_in=22023333,P_in=1110111110101011,tb=101,plabels=xxxxxxxxxxxxxxxx,Dx=zz, ns=0100000
time=1880, clock=0, Rx=100, we=0, te=1, oe=0, wptr=8, tptr=3, min_state=010, tb_reg=010,A_in=22023333,P_in=1110111110101011,tb=101,plabels=xxxxxxxxxxxxxxxx,Dx=zz, ns=0100000
time=1900, clock=1, Rx=100, we=0, te=1, oe=0, wptr=8, tptr=2, min_state=010, tb_reg=101,A_in=22023333,P_in=1110111110101011,tb=010,plabels=xxxxxxxxxxxxxxxx,Dx=zz, ns=0100000
time=1920, clock=0, Rx=100, we=0, te=1, oe=0, wptr=8, tptr=2, min_state=010, tb_reg=101,A_in=22023333,P_in=1110111110101011,tb=010,plabels=xxxxxxxxxxxxxxxx,Dx=zz, ns=0100000
time=1940, clock=1, Rx=100, we=0, te=0, oe=0, wptr=8, tptr=2, min_state=010, tb_reg=011,A_in=22023333,P_in=1110111110101011,tb=000,plabels=xxxxxxxxxxxxxxxx,Dx=zz, ns=1000000
time=1960, clock=0, Rx=100, we=0, te=0, oe=0, wptr=8, tptr=2, min_state=010, tb_reg=011,A_in=22023333,P_in=1110111110101011,tb=000,plabels=xxxxxxxxxxxxxxxx,Dx=zz, ns=1000000
time=1980, clock=1, Rx=100, we=0, te=0, oe=1, wptr=8, tptr=2, min_state=010, tb_reg=011,A_in=22023333,P_in=1110111110101011,tb=000,plabels=xxxxxxxxxxxxxxxx,Dx=01, ns=0000010
time=2000, clock=0, Rx=100, we=0, te=0, oe=1, wptr=8, tptr=2, min_state=010, tb_reg=011,A_in=22023333,P_in=1110111110101011,tb=000,plabels=xxxxxxxxxxxxxxxx,Dx=01, ns=0000010
time=2020, clock=1, Rx=100, we=0, te=0, oe=0, wptr=8, tptr=2, min_state=010, tb_reg=011,A_in=22023333,P_in=1110111110101011,tb=101,plabels=xxxxxxxxxxxxxxxx,Dx=zz, ns=0000100
time=2040, clock=0, Rx=100, we=0, te=0, oe=0, wptr=8, tptr=2, min_state=010, tb_reg=011,A_in=22023333,P_in=1110111110101011,tb=101,plabels=xxxxxxxxxxxxxxxx,Dx=zz, ns=0000100
time=2060, clock=1, Rx=100, we=0, te=0, oe=0, wptr=8, tptr=2, min_state=010, tb_reg=011,A_in=22023333,P_in=1110111110101011,tb=101,plabels=xxxxxxxxxxxxxxxx,Dx=zz, ns=0001000
time=2080, clock=0, Rx=100, we=0, te=0, oe=0, wptr=8, tptr=2, min_state=010, tb_reg=011,A_in=22023333,P_in=1110111110101011,tb=101,plabels=xxxxxxxxxxxxxxxx,Dx=zz, ns=0001000
time=2100, clock=1, Rx=100, we=1, te=0, oe=0, wptr=9, tptr=2, min_state=101, tb_reg=011,A_in=33332022,P_in=0000000100000000,tb=101,plabels=xxxxxxxxxxxxxxxx,Dx=zz, ns=0010000
time=2120, clock=0, Rx=100, we=1, te=0, oe=0, wptr=9, tptr=2, min_state=101, tb_reg=011,A_in=33332022,P_in=0000000100000000,tb=101,plabels=xxxxxxxxxxxxxxxx,Dx=zz, ns=0010000
time=2140, clock=1, Rx=100, we=0, te=0, oe=0, wptr=8, tptr=8, min_state=101, tb_reg=101,A_in=33332022,P_in=0000000100000000,tb=111,plabels=xxxxxxxxxxxxxxxx,Dx=zz, ns=0100000
time=2160, clock=0, Rx=011, we=0, te=0, oe=0, wptr=8, tptr=8, min_state=101, tb_reg=101,A_in=33332022,P_in=0000000100000000,tb=111,plabels=xxxxxxxxxxxxxxxx,Dx=zz, ns=0100000
time=2180, clock=1, Rx=011, we=0, te=1, oe=0, wptr=8, tptr=7, min_state=101, tb_reg=101,A_in=33332022,P_in=0000000100000000,tb=010,plabels=xxxxxxxxxxxxxxxx,Dx=zz, ns=0100000
time=2200, clock=0, Rx=011, we=0, te=1, oe=0, wptr=8, tptr=7, min_state=101, tb_reg=101,A_in=33332022,P_in=0000000100000000,tb=010,plabels=xxxxxxxxxxxxxxxx,Dx=zz, ns=0100000
time=2220, clock=1, Rx=011, we=0, te=1, oe=0, wptr=8, tptr=6, min_state=101, tb_reg=010,A_in=33332022,P_in=0000000100000000,tb=100,plabels=xxxxxxxxxxxxxxxx,Dx=zz, ns=0100000
time=2240, clock=0, Rx=011, we=0, te=1, oe=0, wptr=8, tptr=6, min_state=101, tb_reg=010,A_in=33332022,P_in=0000000100000000,tb=100,plabels=xxxxxxxxxxxxxxxx,Dx=zz, ns=0100000
time=2260, clock=1, Rx=011, we=0, te=1, oe=0, wptr=8, tptr=5, min_state=101, tb_reg=100,A_in=33332022,P_in=0000000100000000,tb=010,plabels=xxxxxxxxxxxxxxxx,Dx=zz, ns=0100000
time=2280, clock=0, Rx=011, we=0, te=1, oe=0, wptr=8, tptr=5, min_state=101, tb_reg=100,A_in=33332022,P_in=0000000100000000,tb=010,plabels=xxxxxxxxxxxxxxxx,Dx=zz, ns=0100000
time=2300, clock=1, Rx=011, we=0, te=1, oe=0, wptr=8, tptr=4, min_state=101, tb_reg=011,A_in=33332022,P_in=0000000100000000,tb=101,plabels=xxxxxxxxxxxxxxxx,Dx=zz, ns=0100000
time=2320, clock=0, Rx=011, we=0, te=1, oe=0, wptr=8, tptr=4, min_state=101, tb_reg=011,A_in=33332022,P_in=0000000100000000,tb=101,plabels=xxxxxxxxxxxxxxxx,Dx=zz, ns=0100000
time=2340, clock=1, Rx=011, we=0, te=1, oe=0, wptr=8, tptr=3, min_state=101, tb_reg=101,A_in=33332022,P_in=0000000100000000,tb=010,plabels=xxxxxxxxxxxxxxxx,Dx=zz, ns=0100000
time=2360, clock=0, Rx=011, we=0, te=1, oe=0, wptr=8, tptr=3, min_state=101, tb_reg=101,A_in=33332022,P_in=0000000100000000,tb=010,plabels=xxxxxxxxxxxxxxxx,Dx=zz, ns=0100000
